lab2/Lab2_Ripple_Carry_Adder/Ripple_Carry_Adder.vcd
$date
    Oct  5, 2022  00:46:20
$end
$version
    TOOL:	ncsim	15.20-s039
$end
$timescale
    1 ps
$end

$scope module Ripple_Carry_Adder_t $end
$var reg       8 !    a [7:0] $end
$var reg       8 "    b [7:0] $end
$var reg       1 #    cin  $end
$upscope $end

$enddefinitions $end
$dumpvars
b0 !
b0 "
0#
$end
#1000
1#
#2000
0#
b1 "
#3000
1#
#4000
0#
b10 "
#5000
1#
#6000
0#
b11 "
#7000
1#
#8000
0#
b100 "
#9000
1#
#10000
0#
b101 "
#11000
1#
#12000
0#
b110 "
#13000
1#
#14000
0#
b111 "
#15000
1#
#16000
0#
b1000 "
#17000
1#
#18000
0#
b1001 "
#19000
1#
#20000
0#
b1010 "
#21000
1#
#22000
0#
b1011 "
#23000
1#
#24000
0#
b1100 "
#25000
1#
#26000
0#
b1101 "
#27000
1#
#28000
0#
b1110 "
#29000
1#
#30000
0#
b1111 "
#31000
1#
#32000
0#
b10000 "
#33000
1#
#34000
0#
b10001 "
#35000
1#
#36000
0#
b10010 "
#37000
1#
#38000
0#
b10011 "
#39000
1#
#40000
0#
b10100 "
#41000
1#
#42000
0#
b10101 "
#43000
1#
#44000
0#
b10110 "
#45000
1#
#46000
0#
b10111 "
#47000
1#
#48000
0#
b11000 "
#49000
1#
#50000
0#
b11001 "
#51000
1#
#52000
0#
b11010 "
#53000
1#
#54000
0#
b11011 "
#55000
1#
#56000
0#
b11100 "
#57000
1#
#58000
0#
b11101 "
#59000
1#
#60000
0#
b11110 "
#61000
1#
#62000
0#
b11111 "
#63000
1#
#64000
0#
b100000 "
#65000
1#
#66000
0#
b100001 "
#67000
1#
#68000
0#
b100010 "
#69000
1#
#70000
0#
b100011 "
#71000
1#
#72000
0#
b100100 "
#73000
1#
#74000
0#
b100101 "
#75000
1#
#76000
0#
b100110 "
#77000
1#
#78000
0#
b100111 "
#79000
1#
#80000
0#
b101000 "
#81000
1#
#82000
0#
b101001 "
#83000
1#
#84000
0#
b101010 "
#85000
1#
#86000
0#
b101011 "
#87000
1#
#88000
0#
b101100 "
#89000
1#
#90000
0#
b101101 "
#91000
1#
#92000
0#
b101110 "
#93000
1#
#94000
0#
b101111 "
#95000
1#
#96000
0#
b110000 "
#97000
1#
#98000
0#
b110001 "
#99000
1#
#100000
0#
b110010 "
#101000
1#
#102000
0#
b110011 "
#103000
1#
#104000
0#
b110100 "
#105000
1#
#106000
0#
b110101 "
#107000
1#
#108000
0#
b110110 "
#109000
1#
#110000
0#
b110111 "
#111000
1#
#112000
0#
b111000 "
#113000
1#
#114000
0#
b111001 "
#115000
1#
#116000
0#
b111010 "
#117000
1#
#118000
0#
b111011 "
#119000
1#
#120000
0#
b111100 "
#121000
1#
#122000
0#
b111101 "
#123000
1#
#124000
0#
b111110 "
#125000
1#
#126000
0#
b111111 "
#127000
1#
#128000
0#
b1000000 "
#129000
1#
#130000
0#
b1000001 "
#131000
1#
#132000
0#
b1000010 "
#133000
1#
#134000
0#
b1000011 "
#135000
1#
#136000
0#
b1000100 "
#137000
1#
#138000
0#
b1000101 "
#139000
1#
#140000
0#
b1000110 "
#141000
1#
#142000
0#
b1000111 "
#143000
1#
#144000
0#
b1001000 "
#145000
1#
#146000
0#
b1001001 "
#147000
1#
#148000
0#
b1001010 "
#149000
1#
#150000
0#
b1001011 "
#151000
1#
#152000
0#
b1001100 "
#153000
1#
#154000
0#
b1001101 "
#155000
1#
#156000
0#
b1001110 "
#157000
1#
#158000
0#
b1001111 "
#159000
1#
#160000
0#
b1010000 "
#161000
1#
#162000
0#
b1010001 "
#163000
1#
#164000
0#
b1010010 "
#165000
1#
#166000
0#
b1010011 "
#167000
1#
#168000
0#
b1010100 "
#169000
1#
#170000
0#
b1010101 "
#171000
1#
#172000
0#
b1010110 "
#173000
1#
#174000
0#
b1010111 "
#175000
1#
#176000
0#
b1011000 "
#177000
1#
#178000
0#
b1011001 "
#179000
1#
#180000
0#
b1011010 "
#181000
1#
#182000
0#
b1011011 "
#183000
1#
#184000
0#
b1011100 "
#185000
1#
#186000
0#
b1011101 "
#187000
1#
#188000
0#
b1011110 "
#189000
1#
#190000
0#
b1011111 "
#191000
1#
#192000
0#
b1100000 "
#193000
1#
#194000
0#
b1100001 "
#195000
1#
#196000
0#
b1100010 "
#197000
1#
#198000
0#
b1100011 "
#199000
1#
#200000
0#
b1100100 "
#201000
1#
#202000
0#
b1100101 "
#203000
1#
#204000
0#
b1100110 "
#205000
1#
#206000
0#
b1100111 "
#207000
1#
#208000
0#
b1101000 "
#209000
1#
#210000
0#
b1101001 "
#211000
1#
#212000
0#
b1101010 "
#213000
1#
#214000
0#
b1101011 "
#215000
1#
#216000
0#
b1101100 "
#217000
1#
#218000
0#
b1101101 "
#219000
1#
#220000
0#
b1101110 "
#221000
1#
#222000
0#
b1101111 "
#223000
1#
#224000
0#
b1110000 "
#225000
1#
#226000
0#
b1110001 "
#227000
1#
#228000
0#
b1110010 "
#229000
1#
#230000
0#
b1110011 "
#231000
1#
#232000
0#
b1110100 "
#233000
1#
#234000
0#
b1110101 "
#235000
1#
#236000
0#
b1110110 "
#237000
1#
#238000
0#
b1110111 "
#239000
1#
#240000
0#
b1111000 "
#241000
1#
#242000
0#
b1111001 "
#243000
1#
#244000
0#
b1111010 "
#245000
1#
#246000
0#
b1111011 "
#247000
1#
#248000
0#
b1111100 "
#249000
1#
#250000
0#
b1111101 "
#251000
1#
#252000
0#
b1111110 "
#253000
1#
#254000
0#
b1111111 "
#255000
1#
#256000
0#
b10000000 "
#257000
1#
#258000
0#
b10000001 "
#259000
1#
#260000
0#
b10000010 "
#261000
1#
#262000
0#
b10000011 "
#263000
1#
#264000
0#
b10000100 "
#265000
1#
#266000
0#
b10000101 "
#267000
1#
#268000
0#
b10000110 "
#269000
1#
#270000
0#
b10000111 "
#271000
1#
#272000
0#
b10001000 "
#273000
1#
#274000
0#
b10001001 "
#275000
1#
#276000
0#
b10001010 "
#277000
1#
#278000
0#
b10001011 "
#279000
1#
#280000
0#
b10001100 "
#281000
1#
#282000
0#
b10001101 "
#283000
1#
#284000
0#
b10001110 "
#285000
1#
#286000
0#
b10001111 "
#287000
1#
#288000
0#
b10010000 "
#289000
1#
#290000
0#
b10010001 "
#291000
1#
#292000
0#
b10010010 "
#293000
1#
#294000
0#
b10010011 "
#295000
1#
#296000
0#
b10010100 "
#297000
1#
#298000
0#
b10010101 "
#299000
1#
#300000
0#
b10010110 "
#301000
1#
#302000
0#
b10010111 "
#303000
1#
#304000
0#
b10011000 "
#305000
1#
#306000
0#
b10011001 "
#307000
1#
#308000
0#
b10011010 "
#309000
1#
#310000
0#
b10011011 "
#311000
1#
#312000
0#
b10011100 "
#313000
1#
#314000
0#
b10011101 "
#315000
1#
#316000
0#
b10011110 "
#317000
1#
#318000
0#
b10011111 "
#319000
1#
#320000
0#
b10100000 "
#321000
1#
#322000
0#
b10100001 "
#323000
1#
#324000
0#
b10100010 "
#325000
1#
#326000
0#
b10100011 "
#327000
1#
#328000
0#
b10100100 "
#329000
1#
#330000
0#
b10100101 "
#331000
1#
#332000
0#
b10100110 "
#333000
1#
#334000
0#
b10100111 "
#335000
1#
#336000
0#
b10101000 "
#337000
1#
#338000
0#
b10101001 "
#339000
1#
#340000
0#
b10101010 "
#341000
1#
#342000
0#
b10101011 "
#343000
1#
#344000
0#
b10101100 "
#345000
1#
#346000
0#
b10101101 "
#347000
1#
#348000
0#
b10101110 "
#349000
1#
#350000
0#
b10101111 "
#351000
1#
#352000
0#
b10110000 "
#353000
1#
#354000
0#
b10110001 "
#355000
1#
#356000
0#
b10110010 "
#357000
1#
#358000
0#
b10110011 "
#359000
1#
#360000
0#
b10110100 "
#361000
1#
#362000
0#
b10110101 "
#363000
1#
#364000
0#
b10110110 "
#365000
1#
#366000
0#
b10110111 "
#367000
1#
#368000
0#
b10111000 "
#369000
1#
#370000
0#
b10111001 "
#371000
1#
#372000
0#
b10111010 "
#373000
1#
#374000
0#
b10111011 "
#375000
1#
#376000
0#
b10111100 "
#377000
1#
#378000
0#
b10111101 "
#379000
1#
#380000
0#
b10111110 "
#381000
1#
#382000
0#
b10111111 "
#383000
1#
#384000
0#
b11000000 "
#385000
1#
#386000
0#
b11000001 "
#387000
1#
#388000
0#
b11000010 "
#389000
1#
#390000
0#
b11000011 "
#391000
1#
#392000
0#
b11000100 "
#393000
1#
#394000
0#
b11000101 "
#395000
1#
#396000
0#
b11000110 "
#397000
1#
#398000
0#
b11000111 "
#399000
1#
#400000
0#
b11001000 "
#401000
1#
#402000
0#
b11001001 "
#403000
1#
#404000
0#
b11001010 "
#405000
1#
#406000
0#
b11001011 "
#407000
1#
#408000
0#
b11001100 "
#409000
1#
#410000
0#
b11001101 "
#411000
1#
#412000
0#
b11001110 "
#413000
1#
#414000
0#
b11001111 "
#415000
1#
#416000
0#
b11010000 "
#417000
1#
#418000
0#
b11010001 "
#419000
1#
#420000
0#
b11010010 "
#421000
1#
#422000
0#
b11010011 "
#423000
1#
#424000
0#
b11010100 "
#425000
1#
#426000
0#
b11010101 "
#427000
1#
#428000
0#
b11010110 "
#429000
1#
#430000
0#
b11010111 "
#431000
1#
#432000
0#
b11011000 "
#433000
1#
#434000
0#
b11011001 "
#435000
1#
#436000
0#
b11011010 "
#437000
1#
#438000
0#
b11011011 "
#439000
1#
#440000
0#
b11011100 "
#441000
1#
#442000
0#
b11011101 "
#443000
1#
#444000
0#
b11011110 "
#445000
1#
#446000
0#
b11011111 "
#447000
1#
#448000
0#
b11100000 "
#449000
1#
#450000
0#
b11100001 "
#451000
1#
#452000
0#
b11100010 "
#453000
1#
#454000
0#
b11100011 "
#455000
1#
#456000
0#
b11100100 "
#457000
1#
#458000
0#
b11100101 "
#459000
1#
#460000
0#
b11100110 "
#461000
1#
#462000
0#
b11100111 "
#463000
1#
#464000
0#
b11101000 "
#465000
1#
#466000
0#
b11101001 "
#467000
1#
#468000
0#
b11101010 "
#469000
1#
#470000
0#
b11101011 "
#471000
1#
#472000
0#
b11101100 "
#473000
1#
#474000
0#
b11101101 "
#475000
1#
#476000
0#
b11101110 "
#477000
1#
#478000
0#
b11101111 "
#479000
1#
#480000
0#
b11110000 "
#481000
1#
#482000
0#
b11110001 "
#483000
1#
#484000
0#
b11110010 "
#485000
1#
#486000
0#
b11110011 "
#487000
1#
#488000
0#
b11110100 "
#489000
1#
#490000
0#
b11110101 "
#491000
1#
#492000
0#
b11110110 "
#493000
1#
#494000
0#
b11110111 "
#495000
1#
#496000
0#
b11111000 "
#497000
1#
#498000
0#
b11111001 "
#499000
1#
#500000
0#
b11111010 "
#501000
1#
#502000
0#
b11111011 "
#503000
1#
#504000
0#
b11111100 "
#505000
1#
#506000
0#
b11111101 "
#507000
1#
#508000
0#
b11111110 "
#509000
1#
#510000
0#
b11111111 "
#511000
1#
#512000
0#
b0 "
b1 !
#513000
1#
#514000
0#
b1 "
#515000
1#
#516000
0#
b10 "
#517000
1#
#518000
0#
b11 "
#519000
1#
#520000
0#
b100 "
#521000
1#
#522000
0#
b101 "
#523000
1#
#524000
0#
b110 "
#525000
1#
#526000
0#
b111 "
#527000
1#
#528000
0#
b1000 "
#529000
1#
#530000
0#
b1001 "
#531000
1#
#532000
0#
b1010 "
#533000
1#
#534000
0#
b1011 "
#535000
1#
#536000
0#
b1100 "
#537000
1#
#538000
0#
b1101 "
#539000
1#
#540000
0#
b1110 "
#541000
1#
#542000
0#
b1111 "
#543000
1#
#544000
0#
b10000 "
#545000
1#
#546000
0#
b10001 "
#547000
1#
#548000
0#
b10010 "
#549000
1#
#550000
0#
b10011 "
#551000
1#
#552000
0#
b10100 "
#553000
1#
#554000
0#
b10101 "
#555000
1#
#556000
0#
b10110 "
#557000
1#
#558000
0#
b10111 "
#559000
1#
#560000
0#
b11000 "
#561000
1#
#562000
0#
b11001 "
#563000
1#
#564000
0#
b11010 "
#565000
1#
#566000
0#
b11011 "
#567000
1#
#568000
0#
b11100 "
#569000
1#
#570000
0#
b11101 "
#571000
1#
#572000
0#
b11110 "
#573000
1#
#574000
0#
b11111 "
#575000
1#
#576000
0#
b100000 "
#577000
1#
#578000
0#
b100001 "
#579000
1#
#580000
0#
b100010 "
#581000
1#
#582000
0#
b100011 "
#583000
1#
#584000
0#
b100100 "
#585000
1#
#586000
0#
b100101 "
#587000
1#
#588000
0#
b100110 "
#589000
1#
#590000
0#
b100111 "
#591000
1#
#592000
0#
b101000 "
#593000
1#
#594000
0#
b101001 "
#595000
1#
#596000
0#
b101010 "
#597000
1#
#598000
0#
b101011 "
#599000
1#
#600000
0#
b101100 "
#601000
1#
#602000
0#
b101101 "
#603000
1#
#604000
0#
b101110 "
#605000
1#
#606000
0#
b101111 "
#607000
1#
#608000
0#
b110000 "
#609000
1#
#610000
0#
b110001 "
#611000
1#
#612000
0#
b110010 "
#613000
1#
#614000
0#
b110011 "
#615000
1#
#616000
0#
b110100 "
#617000
1#
#618000
0#
b110101 "
#619000
1#
#620000
0#
b110110 "
#621000
1#
#622000
0#
b110111 "
#623000
1#
#624000
0#
b111000 "
#625000
1#
#626000
0#
b111001 "
#627000
1#
#628000
0#
b111010 "
#629000
1#
#630000
0#
b111011 "
#631000
1#
#632000
0#
b111100 "
#633000
1#
#634000
0#
b111101 "
#635000
1#
#636000
0#
b111110 "
#637000
1#
#638000
0#
b111111 "
#639000
1#
#640000
0#
b1000000 "
#641000
1#
#642000
0#
b1000001 "
#643000
1#
#644000
0#
b1000010 "
#645000
1#
#646000
0#
b1000011 "
#647000
1#
#648000
0#
b1000100 "
#649000
1#
#650000
0#
b1000101 "
#651000
1#
#652000
0#
b1000110 "
#653000
1#
#654000
0#
b1000111 "
#655000
1#
#656000
0#
b1001000 "
#657000
1#
#658000
0#
b1001001 "
#659000
1#
#660000
0#
b1001010 "
#661000
1#
#662000
0#
b1001011 "
#663000
1#
#664000
0#
b1001100 "
#665000
1#
#666000
0#
b1001101 "
#667000
1#
#668000
0#
b1001110 "
#669000
1#
#670000
0#
b1001111 "
#671000
1#
#672000
0#
b1010000 "
#673000
1#
#674000
0#
b1010001 "
#675000
1#
#676000
0#
b1010010 "
#677000
1#
#678000
0#
b1010011 "
#679000
1#
#680000
0#
b1010100 "
#681000
1#
#682000
0#
b1010101 "
#683000
1#
#684000
0#
b1010110 "
#685000
1#
#686000
0#
b1010111 "
#687000
1#
#688000
0#
b1011000 "
#689000
1#
#690000
0#
b1011001 "
#691000
1#
#692000
0#
b1011010 "
#693000
1#
#694000
0#
b1011011 "
#695000
1#
#696000
0#
b1011100 "
#697000
1#
#698000
0#
b1011101 "
#699000
1#
#700000
0#
b1011110 "
#701000
1#
#702000
0#
b1011111 "
#703000
1#
#704000
0#
b1100000 "
#705000
1#
#706000
0#
b1100001 "
#707000
1#
#708000
0#
b1100010 "
#709000
1#
#710000
0#
b1100011 "
#711000
1#
#712000
0#
b1100100 "
#713000
1#
#714000
0#
b1100101 "
#715000
1#
#716000
0#
b1100110 "
#717000
1#
#718000
0#
b1100111 "
#719000
1#
#720000
0#
b1101000 "
#721000
1#
#722000
0#
b1101001 "
#723000
1#
#724000
0#
b1101010 "
#725000
1#
#726000
0#
b1101011 "
#727000
1#
#728000
0#
b1101100 "
#729000
1#
#730000
0#
b1101101 "
#731000
1#
#732000
0#
b1101110 "
#733000
1#
#734000
0#
b1101111 "
#735000
1#
#736000
0#
b1110000 "
#737000
1#
#738000
0#
b1110001 "
#739000
1#
#740000
0#
b1110010 "
#741000
1#
#742000
0#
b1110011 "
#743000
1#
#744000
0#
b1110100 "
#745000
1#
#746000
0#
b1110101 "
#747000
1#
#748000
0#
b1110110 "
#749000
1#
#750000
0#
b1110111 "
#751000
1#
#752000
0#
b1111000 "
#753000
1#
#754000
0#
b1111001 "
#755000
1#
#756000
0#
b1111010 "
#757000
1#
#758000
0#
b1111011 "
#759000
1#
#760000
0#
b1111100 "
#761000
1#
#762000
0#
b1111101 "
#763000
1#
#764000
0#
b1111110 "
#765000
1#
#766000
0#
b1111111 "
#767000
1#
#768000
0#
b10000000 "
#769000
1#
#770000
0#
b10000001 "
#771000
1#
#772000
0#
b10000010 "
#773000
1#
#774000
0#
b10000011 "
#775000
1#
#776000
0#
b10000100 "
#777000
1#
#778000
0#
b10000101 "
#779000
1#
#780000
0#
b10000110 "
#781000
1#
#782000
0#
b10000111 "
#783000
1#
#784000
0#
b10001000 "
#785000
1#
#786000
0#
b10001001 "
#787000
1#
#788000
0#
b10001010 "
#789000
1#
#790000
0#
b10001011 "
#791000
1#
#792000
0#
b10001100 "
#793000
1#
#794000
0#
b10001101 "
#795000
1#
#796000
0#
b10001110 "
#797000
1#
#798000
0#
b10001111 "
#799000
1#
#800000
0#
b10010000 "
#801000
1#
#802000
0#
b10010001 "
#803000
1#
#804000
0#
b10010010 "
#805000
1#
#806000
0#
b10010011 "
#807000
1#
#808000
0#
b10010100 "
#809000
1#
#810000
0#
b10010101 "
#811000
1#
#812000
0#
b10010110 "
#813000
1#
#814000
0#
b10010111 "
#815000
1#
#816000
0#
b10011000 "
#817000
1#
#818000
0#
b10011001 "
#819000
1#
#820000
0#
b10011010 "
#821000
1#
#822000
0#
b10011011 "
#823000
1#
#824000
0#
b10011100 "
#825000
1#
#826000
0#
b10011101 "
#827000
1#
#828000
0#
b10011110 "
#829000
1#
#830000
0#
b10011111 "
#831000
1#
#832000
0#
b10100000 "
#833000
1#
#834000
0#
b10100001 "
#835000
1#
#836000
0#
b10100010 "
#837000
1#
#838000
0#
b10100011 "
#839000
1#
#840000
0#
b10100100 "
#841000
1#
#842000
0#
b10100101 "
#843000
1#
#844000
0#
b10100110 "
#845000
1#
#846000
0#
b10100111 "
#847000
1#
#848000
0#
b10101000 "
#849000
1#
#850000
0#
b10101001 "
#851000
1#
#852000
0#
b10101010 "
#853000
1#
#854000
0#
b10101011 "
#855000
1#
#856000
0#
b10101100 "
#857000
1#
#858000
0#
b10101101 "
#859000
1#
#860000
0#
b10101110 "
#861000
1#
#862000
0#
b10101111 "
#863000
1#
#864000
0#
b10110000 "
#865000
1#
#866000
0#
b10110001 "
#867000
1#
#868000
0#
b10110010 "
#869000
1#
#870000
0#
b10110011 "
#871000
1#
#872000
0#
b10110100 "
#873000
1#
#874000
0#
b10110101 "
#875000
1#
#876000
0#
b10110110 "
#877000
1#
#878000
0#
b10110111 "
#879000
1#
#880000
0#
b10111000 "
#881000
1#
#882000
0#
b10111001 "
#883000
1#
#884000
0#
b10111010 "
#885000
1#
#886000
0#
b10111011 "
#887000
1#
#888000
0#
b10111100 "
#889000
1#
#890000
0#
b10111101 "
#891000
1#
#892000
0#
b10111110 "
#893000
1#
#894000
0#
b10111111 "
#895000
1#
#896000
0#
b11000000 "
#897000
1#
#898000
0#
b11000001 "
#899000
1#
#900000
0#
b11000010 "
#901000
1#
#902000
0#
b11000011 "
#903000
1#
#904000
0#
b11000100 "
#905000
1#
#906000
0#
b11000101 "
#907000
1#
#908000
0#
b11000110 "
#909000
1#
#910000
0#
b11000111 "
#911000
1#
#912000
0#
b11001000 "
#913000
1#
#914000
0#
b11001001 "
#915000
1#
#916000
0#
b11001010 "
#917000
1#
#918000
0#
b11001011 "
#919000
1#
#920000
0#
b11001100 "
#921000
1#
#922000
0#
b11001101 "
#923000
1#
#924000
0#
b11001110 "
#925000
1#
#926000
0#
b11001111 "
#927000
1#
#928000
0#
b11010000 "
#929000
1#
#930000
0#
b11010001 "
#931000
1#
#932000
0#
b11010010 "
#933000
1#
#934000
0#
b11010011 "
#935000
1#
#936000
0#
b11010100 "
#937000
1#
#938000
0#
b11010101 "
#939000
1#
#940000
0#
b11010110 "
#941000
1#
#942000
0#
b11010111 "
#943000
1#
#944000
0#
b11011000 "
#945000
1#
#946000
0#
b11011001 "
#947000
1#
#948000
0#
b11011010 "
#949000
1#
#950000
0#
b11011011 "
#951000
1#
#952000
0#
b11011100 "
#953000
1#
#954000
0#
b11011101 "
#955000
1#
#956000
0#
b11011110 "
#957000
1#
#958000
0#
b11011111 "
#959000
1#
#960000
0#
b11100000 "
#961000
1#
#962000
0#
b11100001 "
#963000
1#
#964000
0#
b11100010 "
#965000
1#
#966000
0#
b11100011 "
#967000
1#
#968000
0#
b11100100 "
#969000
1#
#970000
0#
b11100101 "
#971000
1#
#972000
0#
b11100110 "
#973000
1#
#974000
0#
b11100111 "
#975000
1#
#976000
0#
b11101000 "
#977000
1#
#978000
0#
b11101001 "
#979000
1#
#980000
0#
b11101010 "
#981000
1#
#982000
0#
b11101011 "
#983000
1#
#984000
0#
b11101100 "
#985000
1#
#986000
0#
b11101101 "
#987000
1#
#988000
0#
b11101110 "
#989000
1#
#990000
0#
b11101111 "
#991000
1#
#992000
0#
b11110000 "
#993000
1#
#994000
0#
b11110001 "
#995000
1#
#996000
0#
b11110010 "
#997000
1#
#998000
0#
b11110011 "
#999000
1#
#1000000
0#
b11110100 "
#1001000
1#
#1002000
0#
b11110101 "
#1003000
1#
#1004000
0#
b11110110 "
#1005000
1#
#1006000
0#
b11110111 "
#1007000
1#
#1008000
0#
b11111000 "
#1009000
1#
#1010000
0#
b11111001 "
#1011000
1#
#1012000
0#
b11111010 "
#1013000
1#
#1014000
0#
b11111011 "
#1015000
1#
#1016000
0#
b11111100 "
#1017000
1#
#1018000
0#
b11111101 "
#1019000
1#
#1020000
0#
b11111110 "
#1021000
1#
#1022000
0#
b11111111 "
#1023000
1#
#1024000
0#
b0 "
b10 !
#1025000
1#
#1026000
0#
b1 "
#1027000
1#
#1028000
0#
b10 "
#1029000
1#
#1030000
0#
b11 "
#1031000
1#
#1032000
0#
b100 "
#1033000
1#
#1034000
0#
b101 "
#1035000
1#
#1036000
0#
b110 "
#1037000
1#
#1038000
0#
b111 "
#1039000
1#
#1040000
0#
b1000 "
#1041000
1#
#1042000
0#
b1001 "
#1043000
1#
#1044000
0#
b1010 "
#1045000
1#
#1046000
0#
b1011 "
#1047000
1#
#1048000
0#
b1100 "
#1049000
1#
#1050000
0#
b1101 "
#1051000
1#
#1052000
0#
b1110 "
#1053000
1#
#1054000
0#
b1111 "
#1055000
1#
#1056000
0#
b10000 "
#1057000
1#
#1058000
0#
b10001 "
#1059000
1#
#1060000
0#
b10010 "
#1061000
1#
#1062000
0#
b10011 "
#1063000
1#
#1064000
0#
b10100 "
#1065000
1#
#1066000
0#
b10101 "
#1067000
1#
#1068000
0#
b10110 "
#1069000
1#
#1070000
0#
b10111 "
#1071000
1#
#1072000
0#
b11000 "
#1073000
1#
#1074000
0#
b11001 "
#1075000
1#
#1076000
0#
b11010 "
#1077000
1#
#1078000
0#
b11011 "
#1079000
1#
#1080000
0#
b11100 "
#1081000
1#
#1082000
0#
b11101 "
#1083000
1#
#1084000
0#
b11110 "
#1085000
1#
#1086000
0#
b11111 "
#1087000
1#
#1088000
0#
b100000 "
#1089000
1#
#1090000
0#
b100001 "
#1091000
1#
#1092000
0#
b100010 "
#1093000
1#
#1094000
0#
b100011 "
#1095000
1#
#1096000
0#
b100100 "
#1097000
1#
#1098000
0#
b100101 "
#1099000
1#
#1100000
0#
b100110 "
#1101000
1#
#1102000
0#
b100111 "
#1103000
1#
#1104000
0#
b101000 "
#1105000
1#
#1106000
0#
b101001 "
#1107000
1#
#1108000
0#
b101010 "
#1109000
1#
#1110000
0#
b101011 "
#1111000
1#
#1112000
0#
b101100 "
#1113000
1#
#1114000
0#
b101101 "
#1115000
1#
#1116000
0#
b101110 "
#1117000
1#
#1118000
0#
b101111 "
#1119000
1#
#1120000
0#
b110000 "
#1121000
1#
#1122000
0#
b110001 "
#1123000
1#
#1124000
0#
b110010 "
#1125000
1#
#1126000
0#
b110011 "
#1127000
1#
#1128000
0#
b110100 "
#1129000
1#
#1130000
0#
b110101 "
#1131000
1#
#1132000
0#
b110110 "
#1133000
1#
#1134000
0#
b110111 "
#1135000
1#
#1136000
0#
b111000 "
#1137000
1#
#1138000
0#
b111001 "
#1139000
1#
#1140000
0#
b111010 "
#1141000
1#
#1142000
0#
b111011 "
#1143000
1#
#1144000
0#
b111100 "
#1145000
1#
#1146000
0#
b111101 "
#1147000
1#
#1148000
0#
b111110 "
#1149000
1#
#1150000
0#
b111111 "
#1151000
1#
#1152000
0#
b1000000 "
#1153000
1#
#1154000
0#
b1000001 "
#1155000
1#
#1156000
0#
b1000010 "
#1157000
1#
#1158000
0#
b1000011 "
#1159000
1#
#1160000
0#
b1000100 "
#1161000
1#
#1162000
0#
b1000101 "
#1163000
1#
#1164000
0#
b1000110 "
#1165000
1#
#1166000
0#
b1000111 "
#1167000
1#
#1168000
0#
b1001000 "
#1169000
1#
#1170000
0#
b1001001 "
#1171000
1#
#1172000
0#
b1001010 "
#1173000
1#
#1174000
0#
b1001011 "
#1175000
1#
#1176000
0#
b1001100 "
#1177000
1#
#1178000
0#
b1001101 "
#1179000
1#
#1180000
0#
b1001110 "
#1181000
1#
#1182000
0#
b1001111 "
#1183000
1#
#1184000
0#
b1010000 "
#1185000
1#
#1186000
0#
b1010001 "
#1187000
1#
#1188000
0#
b1010010 "
#1189000
1#
#1190000
0#
b1010011 "
#1191000
1#
#1192000
0#
b1010100 "
#1193000
1#
#1194000
0#
b1010101 "
#1195000
1#
#1196000
0#
b1010110 "
#1197000
1#
#1198000
0#
b1010111 "
#1199000
1#
#1200000
0#
b1011000 "
#1201000
1#
#1202000
0#
b1011001 "
#1203000
1#
#1204000
0#
b1011010 "
#1205000
1#
#1206000
0#
b1011011 "
#1207000
1#
#1208000
0#
b1011100 "
#1209000
1#
#1210000
0#
b1011101 "
#1211000
1#
#1212000
0#
b1011110 "
#1213000
1#
#1214000
0#
b1011111 "
#1215000
1#
#1216000
0#
b1100000 "
#1217000
1#
#1218000
0#
b1100001 "
#1219000
1#
#1220000
0#
b1100010 "
#1221000
1#
#1222000
0#
b1100011 "
#1223000
1#
#1224000
0#
b1100100 "
#1225000
1#
#1226000
0#
b1100101 "
#1227000
1#
#1228000
0#
b1100110 "
#1229000
1#
#1230000
0#
b1100111 "
#1231000
1#
#1232000
0#
b1101000 "
#1233000
1#
#1234000
0#
b1101001 "
#1235000
1#
#1236000
0#
b1101010 "
#1237000
1#
#1238000
0#
b1101011 "
#1239000
1#
#1240000
0#
b1101100 "
#1241000
1#
#1242000
0#
b1101101 "
#1243000
1#
#1244000
0#
b1101110 "
#1245000
1#
#1246000
0#
b1101111 "
#1247000
1#
#1248000
0#
b1110000 "
#1249000
1#
#1250000
0#
b1110001 "
#1251000
1#
#1252000
0#
b1110010 "
#1253000
1#
#1254000
0#
b1110011 "
#1255000
1#
#1256000
0#
b1110100 "
#1257000
1#
#1258000
0#
b1110101 "
#1259000
1#
#1260000
0#
b1110110 "
#1261000
1#
#1262000
0#
b1110111 "
#1263000
1#
#1264000
0#
b1111000 "
#1265000
1#
#1266000
0#
b1111001 "
#1267000
1#
#1268000
0#
b1111010 "
#1269000
1#
#1270000
0#
b1111011 "
#1271000
1#
#1272000
0#
b1111100 "
#1273000
1#
#1274000
0#
b1111101 "
#1275000
1#
#1276000
0#
b1111110 "
#1277000
1#
#1278000
0#
b1111111 "
#1279000
1#
#1280000
0#
b10000000 "
#1281000
1#
#1282000
0#
b10000001 "
#1283000
1#
#1284000
0#
b10000010 "
#1285000
1#
#1286000
0#
b10000011 "
#1287000
1#
#1288000
0#
b10000100 "
#1289000
1#
#1290000
0#
b10000101 "
#1291000
1#
#1292000
0#
b10000110 "
#1293000
1#
#1294000
0#
b10000111 "
#1295000
1#
#1296000
0#
b10001000 "
#1297000
1#
#1298000
0#
b10001001 "
#1299000
1#
#1300000
0#
b10001010 "
#1301000
1#
#1302000
0#
b10001011 "
#1303000
1#
#1304000
0#
b10001100 "
#1305000
1#
#1306000
0#
b10001101 "
#1307000
1#
#1308000
0#
b10001110 "
#1309000
1#
#1310000
0#
b10001111 "
#1311000
1#
#1312000
0#
b10010000 "
#1313000
1#
#1314000
0#
b10010001 "
#1315000
1#
#1316000
0#
b10010010 "
#1317000
1#
#1318000
0#
b10010011 "
#1319000
1#
#1320000
0#
b10010100 "
#1321000
1#
#1322000
0#
b10010101 "
#1323000
1#
#1324000
0#
b10010110 "
#1325000
1#
#1326000
0#
b10010111 "
#1327000
1#
#1328000
0#
b10011000 "
#1329000
1#
#1330000
0#
b10011001 "
#1331000
1#
#1332000
0#
b10011010 "
#1333000
1#
#1334000
0#
b10011011 "
#1335000
1#
#1336000
0#
b10011100 "
#1337000
1#
#1338000
0#
b10011101 "
#1339000
1#
#1340000
0#
b10011110 "
#1341000
1#
#1342000
0#
b10011111 "
#1343000
1#
#1344000
0#
b10100000 "
#1345000
1#
#1346000
0#
b10100001 "
#1347000
1#
#1348000
0#
b10100010 "
#1349000
1#
#1350000
0#
b10100011 "
#1351000
1#
#1352000
0#
b10100100 "
#1353000
1#
#1354000
0#
b10100101 "
#1355000
1#
#1356000
0#
b10100110 "
#1357000
1#
#1358000
0#
b10100111 "
#1359000
1#
#1360000
0#
b10101000 "
#1361000
1#
#1362000
0#
b10101001 "
#1363000
1#
#1364000
0#
b10101010 "
#1365000
1#
#1366000
0#
b10101011 "
#1367000
1#
#1368000
0#
b10101100 "
#1369000
1#
#1370000
0#
b10101101 "
#1371000
1#
#1372000
0#
b10101110 "
#1373000
1#
#1374000
0#
b10101111 "
#1375000
1#
#1376000
0#
b10110000 "
#1377000
1#
#1378000
0#
b10110001 "
#1379000
1#
#1380000
0#
b10110010 "
#1381000
1#
#1382000
0#
b10110011 "
#1383000
1#
#1384000
0#
b10110100 "
#1385000
1#
#1386000
0#
b10110101 "
#1387000
1#
#1388000
0#
b10110110 "
#1389000
1#
#1390000
0#
b10110111 "
